simulation/mem_consistency.vcd
$date
    Apr  9, 2026  16:59:55
$end
$version
    TOOL:	ncsim(64)	15.20-s086
$end
$timescale
    1 ns
$end

$scope module mem_consistency_tb $end
$var parameter 32 !    NUM_CORES  $end
$var reg       1 "    clk  $end
$var reg       1 #    rstn  $end
$var reg       1 $    raw_violation  $end
$var reg       1 %    waw_conflict  $end
$var reg      32 &    viol_addr [31:0] $end
$var reg      32 '    viol_exp [31:0] $end
$var reg      32 (    viol_got [31:0] $end
$var reg       4 )    viol_core [3:0] $end
$var integer  32 *    pass_cnt  $end
$var integer  32 +    fail_cnt  $end

$scope module u_mem $end
$var parameter 32 ,    NUM_CORES  $end
$var parameter 32 -    MEM_DEPTH  $end
$var wire      1 .    clk  $end
$var wire      1 /    rstn  $end
$var reg       2 0    rr_ptr [1:0] $end
$upscope $end


$scope module u_chk $end
$var parameter 32 1    NUM_CORES  $end
$var parameter 32 2    LOG_DEPTH  $end
$var wire      1 3    clk  $end
$var wire      1 4    rstn  $end
$var reg       1 5    raw_violation  $end
$var reg       1 6    waw_conflict  $end
$var reg      32 7    viol_addr [31:0] $end
$var reg      32 8    viol_exp [31:0] $end
$var reg      32 9    viol_got [31:0] $end
$var reg       4 :    viol_core [3:0] $end
$var reg       4 ;    log_ptr [3:0] $end
$upscope $end


$scope begin unmblk1 $end
$var reg      32 <    rd [31:0] $end
$upscope $end

$upscope $end

$enddefinitions $end
$dumpvars
b10000 2
b100 1
b10000 -
b100 ,
b100 !
0"
0#
0$
0%
b0 &
b0 '
b0 (
b0 )
b0 *
b0 +
0.
0/
b0 0
03
04
05
06
b0 7
b0 8
b0 9
b0 :
b0 ;
bx <
$end
#5
1"
13
1.
#10
0"
03
0.
#15
1"
13
1.
#20
0"
03
0.
#25
1"
13
1.
#30
0"
03
0.
#35
1"
1#
14
1/
13
1.
#40
0"
03
0.
#45
1"
13
1.
#50
0"
03
0.
#55
1"
13
1.
#60
0"
03
0.
#65
1"
13
1.
#70
0"
03
0.
#75
1"
13
1.
b1 0
#80
0"
03
0.
#85
1"
13
1.
b1 ;
#90
0"
03
0.
#95
1"
13
1.
b10 ;
#100
0"
03
0.
#105
1"
b11011110101011011011111011101111 <
13
1.
b11 ;
#110
0"
03
0.
#115
1"
13
1.
#120
0"
03
0.
#125
1"
13
1.
b10 0
#130
0"
03
0.
#135
1"
13
1.
b100 ;
#140
0"
03
0.
#145
1"
13
1.
b101 ;
#150
0"
03
0.
#155
1"
b1 *
b10 *
13
1.
b110 ;
#160
0"
03
0.
#165
1"
13
1.
#170
0"
03
0.
#175
1"
13
1.
b11 0
#180
0"
03
0.
#185
1"
13
1.
b111 ;
#190
0"
03
0.
#195
1"
13
1.
b1000 ;
#200
0"
03
0.
#205
1"
b11001010111111101011101010111110 <
13
1.
b1001 ;
#210
0"
03
0.
#215
1"
13
1.
#220
0"
03
0.
#225
1"
13
1.
b0 0
#230
0"
03
0.
#235
1"
13
1.
b1010 ;
#240
0"
03
0.
#245
1"
13
1.
b1011 ;
#250
0"
03
0.
#255
1"
b0 <
b11 *
b100 *
13
1.
b1100 ;
#260
0"
03
0.
#265
1"
13
1.
#270
0"
03
0.
#275
1"
13
1.
16
b1 0
1%
#280
0"
03
0.
#285
1"
13
1.
b1101 ;
#290
0"
03
0.
#295
1"
13
1.
#300
0"
03
0.
#305
1"
13
1.
#310
0"
03
0.
#315
1"
b101 *
13
1.
#320
0"
03
0.
#325
1"
13
1.
#330
0"
03
0.
#335
1"
13
1.
#340
0"
03
0.
#345
1"
13
1.
b1110 ;
#350
0"
03
0.
#355
1"
13
1.
b1111 ;
#360
0"
03
0.
#365
1"
b10001000100010001000100010001 <
13
1.
b0 ;
#370
0"
03
0.
#375
1"
13
1.
#380
0"
03
0.
#385
1"
13
1.
b10 0
#390
0"
03
0.
#395
1"
13
1.
b1 ;
#400
0"
03
0.
#405
1"
13
1.
b10 ;
#410
0"
03
0.
#415
1"
b100010001000100010001000100010 <
13
1.
b11 ;
#420
0"
03
0.
#425
1"
13
1.
#430
0"
03
0.
#435
1"
13
1.
b11 0
#440
0"
03
0.
#445
1"
13
1.
b100 ;
#450
0"
03
0.
#455
1"
13
1.
b101 ;
#460
0"
03
0.
#465
1"
b110011001100110011001100110011 <
13
1.
b110 ;
#470
0"
03
0.
#475
1"
13
1.
#480
0"
03
0.
#485
1"
13
1.
b0 0
#490
0"
03
0.
#495
1"
13
1.
b111 ;
#500
0"
03
0.
#505
1"
13
1.
b1000 ;
#510
0"
03
0.
#515
1"
b1000100010001000100010001000100 <
13
1.
b1001 ;
#520
0"
03
0.
#525
1"
13
1.
#530
0"
03
0.
#535
1"
13
1.
b1 0
#540
0"
03
0.
#545
1"
13
1.
b1010 ;
#550
0"
03
0.
#555
1"
13
1.
b1011 ;
#560
0"
03
0.
#565
1"
b10001000100010001000100010001 <
b110 *
13
1.
b1100 ;
#570
0"
03
0.
#575
1"
13
1.
#580
0"
03
0.
#585
1"
13
1.
b10 0
#590
0"
03
0.
#595
1"
13
1.
b1101 ;
#600
0"
03
0.
#605
1"
13
1.
b1110 ;
#610
0"
03
0.
#615
1"
b100010001000100010001000100010 <
b111 *
13
1.
b1111 ;
#620
0"
03
0.
#625
1"
13
1.
#630
0"
03
0.
#635
1"
13
1.
b11 0
#640
0"
03
0.
#645
1"
13
1.
b0 ;
#650
0"
03
0.
#655
1"
13
1.
b1 ;
#660
0"
03
0.
#665
1"
b110011001100110011001100110011 <
b1000 *
13
1.
b10 ;
#670
0"
03
0.
#675
1"
13
1.
#680
0"
03
0.
#685
1"
13
1.
b0 0
#690
0"
03
0.
#695
1"
13
1.
b11 ;
#700
0"
03
0.
#705
1"
13
1.
b100 ;
#710
0"
03
0.
#715
1"
b1000100010001000100010001000100 <
b1001 *
13
1.
b101 ;
#720
0"
03
0.
#725
1"
13
1.
#730
0"
03
0.
#735
1"
13
1.
b11 0
#740
0"
03
0.
#745
1"
13
1.
b110 ;
#750
0"
03
0.
#755
1"
13
1.
b111 ;
#760
0"
03
0.
#765
1"
b0 <
b1010 *
13
1.
b1000 ;
